{
  "env": {
    "PORT": "3000",
    "MONGO_ATLAS_USR": "ian",
    "MONGO_ATLAS_PW": "yourOwnPassword",
    "MONGO_ATLAS_DB": "your.mongodb.net/yourDatabaseName",
    "JWT_KEY": "secret_this_should_be_longer"
  }
}
